0x1980

0x1988

0x1978
fwind/IMServicePlugInSupport
00000000000019b2	callq	*0x1978(%rip) ## Objc message ref: objectForKey:

0x1998

0x1990

0x1e68

0x1e70

0xcc0

0xcc4

0xcbc

0xf34

0xccc

0xcc8

0xf38

done
